Project 1: Exploratory Data Analysis
…
NBA4 <- NBA3 %>% mutate(Three_Percentage = `3P`/`3PA`)

NBA4 %>% filter(Pos == "C") %>% select(c(Name, Three_Percentage)) %>% 
    arrange(desc(Three_Percentage))

## # A tibble: 91 x 2
##    Name           Three_Percentage
##    <chr>                     <dbl>
##  1 Bam Adebayo               0.5  
##  2 Isaiah Stewart            0.5  
##  3 Bobby Portis              0.458
##  4 Gorgui Dieng              0.455
##  5 Meyers Leonard            0.435
##  6 Thomas Bryant             0.429
##  7 Nikola Joki_              0.417
##  8 Joel Embiid               0.414
##  9 Chris Boucher             0.405
## 10 Frank Kaminsky            0.4  
## # … with 81 more rows

NBA4 %>% filter(Pos == "C") %>% select(c(Name, `3PAr`)) %>% arrange(desc(`3PAr`))

## # A tibble: 91 x 2
##    Name             `3PAr`
##    <chr>             <dbl>
##  1 Meyers Leonard    1    
##  2 Will Magnay       1    
##  3 An_ejs Pase__iks  1    
##  4 Mike Muscala      0.689
##  5 Kelly Olynyk      0.648
##  6 Marc Gasol        0.637
##  7 Killian Tillie    0.6  
##  8 DeMarcus Cousins  0.552
##  9 Brook Lopez       0.495
## 10 Justin Patton     0.486
## # … with 81 more rows

NBA4 %>% filter(Pos == "PG") %>% select(c(Name, Dist)) %>% arrange(Dist)

## # A tibble: 89 x 2
##    Name             Dist
##    <chr>           <dbl>
##  1 Ben Simmons       4.3
##  2 Jared Harper      6  
##  3 Tre Jones         6.3
##  4 Saben Lee         6.4
##  5 Bruce Brown       6.7
##  6 T.J. McConnell    7.6
##  7 Frank Mason III   8.1
##  8 Elfrid Payton     8.6
##  9 Devon Dotson      9.3
## 10 Jalen Lecque     10  
## # … with 79 more rows

NBA4 %>% select(Name, `3P`, Three_Percentage, Pos) %>% arrange(desc(`3P`))

## # A tibble: 496 x 4
##    Name              `3P` Three_Percentage Pos  
##    <chr>            <dbl>            <dbl> <chr>
##  1 Stephen Curry      4.7            0.412 PG   
##  2 Damian Lillard     4.2            0.378 PG   
##  3 CJ McCollum        4.2            0.404 SG   
##  4 Buddy Hield        4              0.385 SG   
##  5 Malik Beasley      3.5            0.398 SG   
##  6 Zach LaVine        3.5            0.438 SG   
##  7 Donovan Mitchell   3.4            0.395 SG   
##  8 Fred VanVleet      3.4            0.374 SG   
##  9 Joe Harris         3.3            0.493 SF   
## 10 Duncan Robinson    3.3            0.388 SF   
## # … with 486 more rows

NBA4 %>% filter(Pos == "SG") %>% select(c(Name, `3PA`)) %>% arrange(desc(`3PA`))

## # A tibble: 120 x 2
##    Name             `3PA`
##    <chr>            <dbl>
##  1 Buddy Hield       10.4
##  2 CJ McCollum       10.4
##  3 Fred VanVleet      9.1
##  4 Malik Beasley      8.8
##  5 Jordan Clarkson    8.6
##  6 Donovan Mitchell   8.6
##  7 Zach LaVine        8  
##  8 Terry Rozier       8  
##  9 Eric Gordon        7.8
## 10 Tim Hardaway Jr.   7.7
## # … with 110 more rows
…
