Project 2: Modeling, Testing, and Predicting
…
## # A tibble: 3 x 3
##   name           lower  upper
##   <chr>          <dbl>  <dbl>
## 1 (Intercept) -0.108   0.140 
## 2 PER         -0.00144 0.0235
## 3 WS          -0.0139  0.0440

I then ran the regression model with the interaction of PER and WS but I this time computed the bootstrapped standard errors. I did this by resampling observations which I resampled 5000 times. The standard errors for the bootrapped data were higher for both PER and WS compared to the normal SE but when compared to the robust SE the bootstrapped SE are smaller for both PER and WS. This means the p-value for the bootstrapp is more than the normal SE but smaller than the robust SE.

library(plotROC)
NBA2 <- NBA %>% mutate(Pos=ifelse(Pos == "C", "C", "A"))
NBA2 <- NBA2 %>% mutate(y=ifelse(Pos=="C",1,0))
NBA2

## # A tibble: 509 x 7
## Player Pos PER WS BPM VORP y
## <chr> <chr> <dbl> <dbl> <dbl> <dbl> <dbl>
## 1 Precious Achiuwa A 13.9 1.2 -4.3 -0.4 0
## 2 Jaylen Adams A -6.5 -0.1 -19.8 -0.1 0
## 3 Steven Adams C 15.2 4 -0.8 0.5 1
## 4 Bam Adebayo C 22.9 8.1 4.8 3.4 1
## 5 LaMarcus Aldridge C 15.7 1.2 -0.6 0.2 1
## 6 Ty-Shon Alexander A -0.3 -0.1 -11 -0.1 0
## 7 Nickeil Alexander-Walker A 12.4 0.7 -1.7 0.1 0
## 8 Grayson Allen A 12.8 2.6 -0.5 0.5 0
## 9 Jarrett Allen C 21 6.2 1.5 1.5 1
## 10 Al-Farouq Aminu A 8.9 0.1 -4 -0.2 0
## # … with 499 more rows
…
exp(coef(fit))

## (Intercept)         PER          WS 
##  0.05417757  1.09984423  1.03980352

NBA2$prob <- predict(fit,type="response")
NBA2$predicted <- ifelse(NBA2$prob>.5,"C","A")
NBA2

## # A tibble: 509 x 9
## Player Pos PER WS BPM VORP y prob predicted
## <chr> <chr> <dbl> <dbl> <dbl> <dbl> <dbl> <dbl> <chr>
## 1 Precious Achiuwa A 13.9 1.2 -4.3 -0.4 0 0.176 A
## 2 Jaylen Adams A -6.5 -0.1 -19.8 -0.1 0 0.0283 A
## 3 Steven Adams C 15.2 4 -0.8 0.5 1 0.212 A
## 4 Bam Adebayo C 22.9 8.1 4.8 3.4 1 0.397 A
## 5 LaMarcus Aldridge C 15.7 1.2 -0.6 0.2 1 0.202 A
## 6 Ty-Shon Alexander A -0.3 -0.1 -11 -0.1 0 0.0498 A
## 7 Nickeil Alexander-Walker A 12.4 0.7 -1.7 0.1 0 0.153 A
## 8 Grayson Allen A 12.8 2.6 -0.5 0.5 0 0.169 A
## 9 Jarrett Allen C 21 6.2 1.5 1.5 1 0.337 A
## 10 Al-Farouq Aminu A 8.9 0.1 -4 -0.2 0 0.113 A
## # … with 499 more rows
…
library(plotROC)
library(lmtest)
library(glmnet)
NBA3 <- NBA %>% mutate(Pos=ifelse(Pos == "C", "C", "A"))
NBA3 <- NBA3 %>% mutate(y=ifelse(Pos=="C",1,0))
NBA3

## # A tibble: 509 x 7
## Player Pos PER WS BPM VORP y
## <chr> <chr> <dbl> <dbl> <dbl> <dbl> <dbl>
## 1 Precious Achiuwa A 13.9 1.2 -4.3 -0.4 0
## 2 Jaylen Adams A -6.5 -0.1 -19.8 -0.1 0
## 3 Steven Adams C 15.2 4 -0.8 0.5 1
## 4 Bam Adebayo C 22.9 8.1 4.8 3.4 1
## 5 LaMarcus Aldridge C 15.7 1.2 -0.6 0.2 1
## 6 Ty-Shon Alexander A -0.3 -0.1 -11 -0.1 0
## 7 Nickeil Alexander-Walker A 12.4 0.7 -1.7 0.1 0
## 8 Grayson Allen A 12.8 2.6 -0.5 0.5 0
## 9 Jarrett Allen C 21 6.2 1.5 1.5 1
## 10 Al-Farouq Aminu A 8.9 0.1 -4 -0.2 0
## # … with 499 more rows
…
exp(coef(fit))

## (Intercept) PER WS BPM VORP
## 6.357909e-05 1.601389e+00 1.572280e+00 5.562538e-01
4.719281e-01

NBA3$prob <- predict(fit,type="response")
NBA3$predicted <- ifelse(NBA2$prob>.5,"C","A")
NBA3

## # A tibble: 509 x 9
## Player Pos PER WS BPM VORP y prob predicted
## <chr> <chr> <dbl> <dbl> <dbl> <dbl> <dbl> <dbl> <chr>
## 1 Precious Achiuwa A 13.9 1.2 -4.3 -0.4 0 0.562 A
## 2 Jaylen Adams A -6.5 -0.1 -19.8 -0.1 0 0.253 A
## 3 Steven Adams C 15.2 4 -0.8 0.5 1 0.354 A
## 4 Bam Adebayo C 22.9 8.1 4.8 3.4 1 0.358 A
## 5 LaMarcus Aldridge C 15.7 1.2 -0.6 0.2 1 0.179 A
## 6 Ty-Shon Alexander A -0.3 -0.1 -11 -0.1 0 0.0348 A
## 7 Nickeil Alexander-Walker A 12.4 0.7 -1.7 0.1 0 0.0701
A
## 8 Grayson Allen A 12.8 2.6 -0.5 0.5 0 0.0730 A
## 9 Jarrett Allen C 21 6.2 1.5 1.5 1 0.736 A
## 10 Al-Farouq Aminu A 8.9 0.1 -4 -0.2 0 0.0506 A
## # … with 499 more rows
…
